Hands_on_III
…
#Extraction of the needed columns: patient ID and severity for the test cohort (C2)
label_df_test <- clean_data %>%
  filter(covid_19_patients_corhort == "Test 1 (C2)") %>% #only test 1 cohort
  filter(group %in% c("Non-severe", "Severe")) %>% #only COVID-19 patients
  select(Sample = patient_id_a, Severity = group) %>%
  mutate(Sample = as.character(trimws(Sample)))

#Check class distribution in each cohort
print(label_df)

## # A tibble: 31 × 2
##    Sample Severity  
##    <chr>  <chr>     
##  1 XG1    Non-severe
##  2 XG2    Non-severe
##  3 XG3    Non-severe
##  4 XG4    Non-severe
##  5 XG5    Non-severe
##  6 XG6    Non-severe
##  7 XG7    Non-severe
##  8 XG8    Non-severe
##  9 XG9    Non-severe
## 10 XG10   Non-severe
## # ℹ 21 more rows
…
